Time : 21:43:55
SQLSTATE[HY093]: Invalid parameter number: parameter was not defined
Raw SQL : INSERT INTO images(name,url) VALUES(:name,:url)

Time : 21:43:10
SQLSTATE[42000]: Syntax error or access violation: 1064 You have an error in your SQL syntax; check the manual that corresponds to your MySQL server version for the right syntax to use near 'desc,url) VALUES(?,?,?)' at line 1
Raw SQL : INSERT INTO images(name,desc,url) VALUES(:name,:desc,:url)

Time : 20:03:34
SQLSTATE[42000]: Syntax error or access violation: 1064 You have an error in your SQL syntax; check the manual that corresponds to your MySQL server version for the right syntax to use near 'desc,url) VALUES(?,?,?)' at line 1
Raw SQL : INSERT INTO images(name,desc,url) VALUES(:name,:desc,:url)

Time : 20:03:14
SQLSTATE[42000]: Syntax error or access violation: 1064 You have an error in your SQL syntax; check the manual that corresponds to your MySQL server version for the right syntax to use near 'desc,url) VALUES(?,?,?)' at line 1
Raw SQL : INSERT INTO images(name,desc,url) VALUES(:name,:desc,:url)

Time : 19:48:01
SQLSTATE[42000]: Syntax error or access violation: 1064 You have an error in your SQL syntax; check the manual that corresponds to your MySQL server version for the right syntax to use near 'desc,url) VALUES(?,?,?)' at line 1
Raw SQL : INSERT INTO images(name,desc,url) VALUES(:name,:desc,:url)

Time : 19:44:57
SQLSTATE[42000]: Syntax error or access violation: 1064 You have an error in your SQL syntax; check the manual that corresponds to your MySQL server version for the right syntax to use near 'desc,url) VALUES(?,?,?)' at line 1
Raw SQL : INSERT INTO images(name,desc,url) VALUES(:name,:desc,:url)

Time : 19:44:03
SQLSTATE[42000]: Syntax error or access violation: 1064 You have an error in your SQL syntax; check the manual that corresponds to your MySQL server version for the right syntax to use near 'desc,url) VALUES(?,?,?)' at line 1
Raw SQL : INSERT INTO images(name,desc,url) VALUES(:name,:desc,:url)
