Time : 16:27:40
SQLSTATE[23000]: Integrity constraint violation: 1062 Duplicate entry 'hello2.0' for key 'name'
Raw SQL : INSERT INTO albums(name,images) VALUES(:name,:imgs)

Time : 16:19:34
SQLSTATE[23000]: Integrity constraint violation: 1062 Duplicate entry 'sdfdf' for key 'name'
Raw SQL : INSERT INTO albums(name,images) VALUES(:name,:imgs)

Time : 16:18:34
SQLSTATE[23000]: Integrity constraint violation: 1062 Duplicate entry 'cqgsdg' for key 'name'
Raw SQL : INSERT INTO albums(name,images) VALUES(:name,:imgs)

Time : 16:17:49
SQLSTATE[23000]: Integrity constraint violation: 1062 Duplicate entry 'sdfdf' for key 'name'
Raw SQL : INSERT INTO albums(name,images) VALUES(:name,:imgs)

Time : 16:16:49
SQLSTATE[23000]: Integrity constraint violation: 1062 Duplicate entry 'cqgsdg' for key 'name'
Raw SQL : INSERT INTO albums(name,images) VALUES(:name,:imgs)

Time : 16:15:51
SQLSTATE[23000]: Integrity constraint violation: 1062 Duplicate entry 'test 956' for key 'name'
Raw SQL : INSERT INTO albums(name,images) VALUES(:name,:imgs)

Time : 16:13:27
SQLSTATE[23000]: Integrity constraint violation: 1062 Duplicate entry 'hello2.0' for key 'name'
Raw SQL : INSERT INTO albums(name,images) VALUES(:name,:imgs)

Time : 14:46:30
SQLSTATE[HY000]: General error: 2031 
Raw SQL : SELECT * FROM albums WHERE name = :name

Time : 14:25:42
SQLSTATE[HY000]: General error: 2031 
Raw SQL : SELECT id FROM albums WHERE name = :name

Time : 14:01:56
SQLSTATE[HY000]: General error: 2031 
Raw SQL : SELECT id FROM albums WHERE name = :name
