Time : 18:17:47
SQLSTATE[42S22]: Column not found: 1054 Unknown column 'Array' in 'where clause'
Raw SQL : SELECT * FROM images WHERE id NOT IN(Array)

Time : 18:16:43
SQLSTATE[42000]: Syntax error or access violation: 1064 You have an error in your SQL syntax; check the manual that corresponds to your MySQL server version for the right syntax to use near ')' at line 1
Raw SQL : SELECT * FROM images WHERE id NOT IN()

Time : 18:16:38
SQLSTATE[42000]: Syntax error or access violation: 1064 You have an error in your SQL syntax; check the manual that corresponds to your MySQL server version for the right syntax to use near ')' at line 1
Raw SQL : SELECT * FROM images WHERE id NOT IN()

Time : 18:16:19
SQLSTATE[42000]: Syntax error or access violation: 1064 You have an error in your SQL syntax; check the manual that corresponds to your MySQL server version for the right syntax to use near ')' at line 1
Raw SQL : SELECT * FROM images WHERE id NOT IN()

Time : 18:15:32
SQLSTATE[42000]: Syntax error or access violation: 1064 You have an error in your SQL syntax; check the manual that corresponds to your MySQL server version for the right syntax to use near ') ORDER BY FIELD(id, )' at line 1
Raw SQL : SELECT * FROM images WHERE id IN() ORDER BY FIELD(id, )

Time : 18:12:58
SQLSTATE[42000]: Syntax error or access violation: 1064 You have an error in your SQL syntax; check the manual that corresponds to your MySQL server version for the right syntax to use near ') ORDER BY FIELD(id, )' at line 1
Raw SQL : SELECT * FROM images WHERE id IN() ORDER BY FIELD(id, )

Time : 18:11:12
SQLSTATE[42000]: Syntax error or access violation: 1064 You have an error in your SQL syntax; check the manual that corresponds to your MySQL server version for the right syntax to use near ') ORDER BY FIELD(id, )' at line 1
Raw SQL : SELECT * FROM images WHERE id IN() ORDER BY FIELD(id, )

Time : 18:11:05
SQLSTATE[42000]: Syntax error or access violation: 1064 You have an error in your SQL syntax; check the manual that corresponds to your MySQL server version for the right syntax to use near ') ORDER BY FIELD(id, )' at line 1
Raw SQL : SELECT * FROM images WHERE id IN() ORDER BY FIELD(id, )

Time : 18:11:02
SQLSTATE[42000]: Syntax error or access violation: 1064 You have an error in your SQL syntax; check the manual that corresponds to your MySQL server version for the right syntax to use near ') ORDER BY FIELD(id, )' at line 1
Raw SQL : SELECT * FROM images WHERE id IN() ORDER BY FIELD(id, )
